Division,WeightClassKg,Place,Name,Team,BodyweightKg,Best3SquatKg,Best3BenchKg,Best3DeadliftKg,TotalKg,Equipment,Event,Sex,BirthDate
Boys,55.79,1,Lanson Minjarez,Lago Vista,55.2,131.54,61.23,124.74,317.51,Unlimited,SBD,M,
Boys,59.87,1,Michael Morin-St Clar,Fredericksburg,58.88,154.22,92.99,174.63,421.84,Unlimited,SBD,M,
Boys,59.87,2,Matthew Tobias,Kyle Lehman,58.88,47.63,38.56,52.16,138.35,Unlimited,SBD,M,
Boys,67.13,1,Isaac Martinez,Kyle Lehman,67.13,204.12,102.06,199.58,505.76,Unlimited,SBD,M,
Boys,67.13,2,Aiden Segovia,Fredericksburg,65.27,154.22,97.52,158.76,410.5,Unlimited,SBD,M,
Boys,67.13,3,Noah Tatum,Fredericksburg,63.28,142.88,83.91,149.69,376.48,Unlimited,SBD,M,
Boys,67.13,4,Canon Arledge,Fredericksburg,64.73,120.2,79.38,154.22,353.8,Unlimited,SBD,M,
Boys,67.13,5,Kenta Anaya,Lago Vista,64.27,120.2,68.04,117.93,306.17,Unlimited,SBD,M,
Boys,67.13,6,Armando Barron,Lago Vista,63.46,108.86,68.04,108.86,285.76,Unlimited,SBD,M,
Boys,74.84,1,Jaxon Fowler,Fredericksburg,73.57,151.95,99.79,190.51,442.25,Unlimited,SBD,M,
Boys,74.84,2,Carlos Onofre,Austin Anderson,72.94,156.49,92.99,151.95,401.43,Unlimited,SBD,M,
Boys,74.84,3,Samuel Rajski,Lago Vista,72.03,131.54,90.72,170.1,392.36,Unlimited,SBD,M,
Boys,74.84,DQ,Dominic Mays,Austin Anderson,72.76,161.03,,,,Unlimited,SBD,M,
Boys,82.1,1,Gerardo Perez,Fredericksburg,79.38,195.04,131.54,226.8,553.38,Unlimited,SBD,M,
Boys,82.1,2,Jayden Persyn,Fredericksburg,79.51,179.17,140.61,210.92,530.7,Unlimited,SBD,M,
Boys,82.1,3,Mason Randolph,Austin Anderson,78.83,170.1,111.13,174.63,455.86,Unlimited,SBD,M,
Boys,82.1,4,Justin Waters,Austin Anderson,78.74,176.9,104.33,172.37,453.59,Unlimited,SBD,M,
Boys,82.1,5,Ethan Cline,Kyle Lehman,79.38,158.76,95.25,161.03,415.04,Unlimited,SBD,M,
Boys,82.1,6,Jackson Clingaman,Lago Vista,76.2,124.74,81.65,136.08,342.46,Unlimited,SBD,M,
Boys,82.1,DQ,Patrick Voorhees,Fredericksburg,77.11,,,,,Unlimited,SBD,M,
Boys,89.81,1,Dominic Garcia,Lago Vista,87.23,254.01,115.67,276.69,646.37,Unlimited,SBD,M,
Boys,89.81,2,River Anderson,Austin Anderson,85.32,190.51,120.2,172.37,483.08,Unlimited,SBD,M,
Boys,89.81,3,Blake Meredith,Lago Vista,86.09,163.29,115.67,163.29,442.25,Unlimited,SBD,M,
Boys,89.81,4,Jace Hester,Lago Vista,89.04,181.44,97.52,161.03,439.98,Unlimited,SBD,M,
Boys,89.81,5,Jaden Box,Lago Vista,86.64,156.49,102.06,158.76,417.3,Unlimited,SBD,M,
Boys,89.81,6,Brandon Viloela,Lago Vista,86.32,156.49,95.25,149.69,401.43,Unlimited,SBD,M,
Boys,99.79,1,Dayden Williams,Austin Anderson,97.57,215.46,124.74,217.72,557.92,Unlimited,SBD,M,
Boys,99.79,2,Grayden Burke,Lago Vista,95.8,183.7,138.35,229.06,551.11,Unlimited,SBD,M,
Boys,99.79,3,Adrian Ortiz,Kyle Lehman,94.35,204.12,122.47,188.24,514.83,Unlimited,SBD,M,
Boys,99.79,4,Wyatt Peters,Fredericksburg,93.85,142.88,99.79,156.49,399.16,Unlimited,SBD,M,
Boys,99.79,5,Dylan Engle,Austin Anderson,93.8,147.42,83.91,158.76,390.09,Unlimited,SBD,M,
Boys,99.79,6,Logan Manley,Lago Vista,94.76,142.88,79.38,136.08,358.34,Unlimited,SBD,M,
Boys,99.79,7,Andrew Davis,Lago Vista,91.49,131.54,70.31,142.88,344.73,Unlimited,SBD,M,
Boys,109.77,1,Elias Okeefe,Austin Anderson,106.55,217.72,140.61,213.19,571.53,Unlimited,SBD,M,
Boys,109.77,2,Jayden Evans,Austin Anderson,108.64,183.7,106.59,174.63,464.93,Unlimited,SBD,M,
Boys,124.74,1,Jameson Dodes,Fredericksburg,111.72,213.19,151.95,213.19,578.33,Unlimited,SBD,M,
Boys,124.74,2,Victor Arteaga,Fredericksburg,120.66,195.04,127.01,199.58,521.63,Unlimited,SBD,M,
Boys,124.74,3,Jackson Cook,Lago Vista,115.03,208.65,95.25,183.7,487.61,Unlimited,SBD,M,
Boys,124.74,4,Jon Selzer,Lago Vista,122.47,176.9,115.67,167.83,460.4,Unlimited,SBD,M,
Boys,124.74,5,Adrian Vega,Lago Vista,120.43,113.4,70.31,158.76,342.46,Unlimited,SBD,M,
Boys,124.74,6,Thomas Franko,Lago Vista,110.68,131.54,65.77,138.35,335.66,Unlimited,SBD,M,
Boys,139.71+,1,Jacksyn Andrews,Fredericksburg,142.65,195.04,154.22,206.38,555.65,Unlimited,SBD,M,
Boys,,NS,Joaquin Arguelo,Austin Anderson,,,,,,Unlimited,SBD,M,
Boys,,NS,Trisan Smith,Lago Vista,,,,,,Unlimited,SBD,M,
