Place,Name,Sex,Event,Division,WeightClassKg,Equipment,BirthYear,State,BodyweightKg,Squat1Kg,Squat2Kg,Squat3Kg,Best3SquatKg,Bench1Kg,Bench2Kg,Bench3Kg,Best3BenchKg,Deadlift1Kg,Deadlift2Kg,Deadlift3Kg,Best3DeadliftKg,TotalKg,Age,BirthDate
1,Noelle Brigden,F,B,FR-M1,47,Raw,1977,WI,45.51,,,,,70,72.5,-75,72.5,,,,,72.5,,
1,Dora Justice,F,B,FR-M3,57,Raw,1957,TX,55.69,,,,,65,71,72.5,72.5,,,,,72.5,,
1,Dora Justice,F,B,FR-MO,57,Raw,1957,TX,55.69,,,,,65,71,72.5,72.5,,,,,72.5,,
1,Rachel Wright,F,B,FR-MO,63,Raw,1996,IN,61.79,,,,,82.5,92.5,97.5,97.5,,,,,97.5,,
1,Nathaniel Van De Veer,M,B,MR-M1,74,Raw,1975,NE,73.2,,,,,147.5,155,160,160,,,,,160,,
1,Ken England,M,B,MR-M1,93,Raw,1979,FL,92.49,,,,,92.5,97.5,102.5,102.5,,,,,102.5,,
1,Adam Gaudette,M,B,MR-M1,120,Raw,1978,CT,117.79,,,,,95,102.5,-107.5,102.5,,,,,102.5,,
1,Peter Smith,M,B,MR-M2,120+,Raw,1971,FL,201.5,,,,,130,145,152.5,152.5,,,,,152.5,,
1,John March,M,B,MR-M3,83,Raw,1957,FL,82.21,,,,,125,132.5,-137.5,132.5,,,,,132.5,,
1,George Woodbury,M,B,MR-M3,105,Raw,1955,FL,98.59,,,,,-95,95,-102.5,95,,,,,95,,
1,Bob Cosby,M,B,MR-M4,83,Raw,1948,FL,80.99,,,,,105,117.5,-122.5,117.5,,,,,117.5,,
1,Nathaniel Van De Veer,M,B,MR-MO,74,Raw,1975,NE,73.2,,,,,147.5,155,160,160,,,,,160,,
1,Craig Jenkins,M,B,MR-MO,93,Raw,1990,AL,90.65,,,,,167.5,-180,-180,167.5,,,,,167.5,,
1,George Woodbury,M,B,MR-MO,105,Raw,1955,FL,98.59,,,,,-95,95,-102.5,95,,,,,95,,
1,Dinh Tat,F,D,FR-MO,57,Raw,1987,FL,56.48,,,,,,,,,92.5,102.5,115,115,115,,
1,Ken England,M,D,MR-M1,93,Raw,1979,FL,92.49,,,,,,,,,167.5,180,190,190,190,,
1,Adam Gaudette,M,D,MR-M1,120,Raw,1978,CT,117.79,,,,,,,,,192.5,197.5,-200,197.5,197.5,,
1,Kendall Washington,M,D,MR-MO,74,Raw,1995,FL,67.6,,,,,,,,,225,227.5,-230,227.5,227.5,,
1,Craig Jenkins,M,D,MR-MO,93,Raw,1990,AL,90.65,,,,,,,,,235,250,-275,250,250,,
1,Christina Whetstone,F,SBD,FR-Jr,63,Raw,2000,GA,61.84,120,125,127.5,127.5,72.5,77.5,-82.5,77.5,130,-132.5,132.5,132.5,337.5,,
1,Noelle Brigden,F,SBD,FR-M1,47,Raw,1977,WI,45.51,97.5,102.5,107.5,107.5,70,72.5,-75,72.5,127.5,135,140,140,320,,
1,Courtney Driver,F,SBD,FR-M1,63,Raw,1977,IN,60.44,-67.5,67.5,72.5,72.5,45,50,-57.5,50,82.5,90,95,95,217.5,,
1,Angela Bianco,F,SBD,FR-M1,84+,Raw,1977,FL,100.81,47.5,52.5,60,60,45,50,60,60,90,100,105,105,225,,
1,Noelle Brigden,F,SBD,FR-MO,47,Raw,1977,WI,45.51,97.5,102.5,107.5,107.5,70,72.5,-75,72.5,127.5,135,140,140,320,,
1,Dinh Tat,F,SBD,FR-MO,57,Raw,1987,FL,56.48,70,80,90,90,57.5,62.5,65,65,92.5,102.5,115,115,270,,
1,Sierra Adams #1,F,SBD,FR-MO,63,Raw,1995,CA,62.49,135,145,150,150,75,-80,80,80,137.5,147.5,155,155,385,,
2,Rachel Wright,F,SBD,FR-MO,63,Raw,1996,IN,61.79,125,130,132.5,132.5,82.5,92.5,97.5,97.5,110,120,127.5,127.5,357.5,,
3,Christina Whetstone,F,SBD,FR-MO,63,Raw,2000,GA,61.84,120,125,127.5,127.5,72.5,77.5,-82.5,77.5,130,-132.5,132.5,132.5,337.5,,
4,Ann Pham,F,SBD,FR-MO,63,Raw,1987,MA,61.12,112.5,120,125,125,45,47.5,50,50,127.5,135,137.5,137.5,312.5,,
5,Patricia Walker,F,SBD,FR-MO,63,Raw,1983,SC,57.18,87.5,90,95,95,60,65,-70,65,125,130,137.5,137.5,297.5,,
6,Brittany Kilfoyle,F,SBD,FR-MO,63,Raw,1990,TX,59.93,70,77.5,82.5,82.5,37.5,-45,-45,37.5,92.5,97.5,105,105,225,,
1,Aimee Valencia,F,SBD,FR-MO,76,Raw,1994,CA,74.48,117.5,125,-127.5,125,67.5,-70,70,70,155,162.5,167.5,167.5,362.5,,
1,Lee Rogers,M,SBD,MR-M1,66,Raw,1978,NH,65.94,132.5,145,-152.5,145,112.5,117.5,-120,117.5,177.5,190,195,195,457.5,,
1,Rob Patterson,M,SBD,MR-M1,93,Raw,1974,GA,90.43,-207.5,217.5,232.5,232.5,137.5,145,152.5,152.5,217.5,230,240,240,625,,
2,Ken England,M,SBD,MR-M1,93,Raw,1979,FL,92.49,137.5,145,155,155,92.5,97.5,102.5,102.5,167.5,180,190,190,447.5,,
DQ,David Martin #1,M,SBD,MR-M1,105,Raw,1976,IL,103.07,-122.5,-122.5,-122.5,,,,,,,,,,,,
1,Timothy Saults,M,SBD,MR-M1,120,Raw,1980,FL,106.57,177.5,192.5,202.5,202.5,112.5,122.5,132.5,132.5,192.5,210,222.5,222.5,557.5,,
2,Adam Gaudette,M,SBD,MR-M1,120,Raw,1978,CT,117.79,145,150,157.5,157.5,95,102.5,-107.5,102.5,192.5,197.5,-200,197.5,457.5,,
1,David Alexander #4,M,SBD,MR-M1,120+,Raw,1981,GA,127.05,250,262.5,265,265,145,155,-175,155,185,195,205,205,625,,
1,Michael Rodriguez #13,M,SBD,MR-M3,74,Raw,1961,TX,72.85,155,167.5,175,175,120,127.5,-132.5,127.5,190,205,217.5,217.5,520,,
1,Ken Bray,M,SBD,MR-M2,83,Raw,1969,OH,79.48,195,202.5,-210,202.5,120,125,-127.5,125,250,260,272.5,272.5,600,,
1,Leland Blanchard,M,SBD,MR-M2,105,Raw,1971,VA,98.64,140,-150,160,160,110,140,-147.5,140,145,160,172.5,172.5,472.5,,
1,Ted Stewart,M,SBD,MR-M3,120+,Raw,1956,WY,124.29,125,150,155,155,95,105,110,110,182.5,195,,195,460,,
1,Bob Cosby,M,SBD,MR-M4,83,Raw,1948,FL,80.99,60,65,-67.5,65,105,117.5,-122.5,117.5,65,67.5,,67.5,250,,
1,Bob Evans #1,M,SBD,MR-M4,105,Raw,1947,FL,103.07,122.5,-147.5,155,155,102.5,115,-122.5,115,175,192.5,200,200,470,,
1,Derreck Radzieski,M,SBD,MR-MO,74,Raw,1991,NC,73.46,220,-232.5,232.5,232.5,-135,137.5,-145,137.5,240,255,262.5,262.5,632.5,,
2,Kendall Washington,M,SBD,MR-MO,74,Raw,1995,FL,67.6,-192.5,-205,205,205,127.5,130,-137.5,130,225,227.5,-230,227.5,562.5,,
3,Michael Rodriguez #13,M,SBD,MR-MO,74,Raw,1961,TX,72.85,155,167.5,175,175,120,127.5,-132.5,127.5,190,205,217.5,217.5,520,,
1,Anthony Bilal,M,SBD,MR-MO,83,Raw,1994,OH,82.57,260,272.5,285,285,167.5,177.5,-182.5,177.5,270,-290,-290,270,732.5,,
2,Ken Bray,M,SBD,MR-MO,83,Raw,1969,OH,79.48,195,202.5,-210,202.5,120,125,-127.5,125,250,260,272.5,272.5,600,,
3,Jeffrey Hoffman II,M,SBD,MR-MO,83,Raw,1986,NC,81.32,185,195,205,205,142.5,145,147.5,147.5,227.5,245,-265,245,597.5,,
4,Aaron Evans,M,SBD,MR-MO,83,Raw,1981,NC,82.97,-195,207.5,215,215,-135,142.5,-147.5,142.5,210,220,232.5,232.5,590,,
5,Joe Blake,M,SBD,MR-MO,83,Raw,1995,SD,80.49,152.5,165,185,185,110,117.5,-125,117.5,175,185,190,190,492.5,,
6,Tommaso Palomba,M,SBD,MR-MO,83,Raw,1993,FL,78.2,92.5,-97.5,-100,92.5,-67.5,70,-75,70,112.5,120,127.5,127.5,290,,
1,Cyler Anderson,M,SBD,MR-MO,93,Raw,1995,SD,92.5,255,-265,265,265,155,160,162.5,162.5,267.5,277.5,-292.5,277.5,705,,
2,Craig Jenkins,M,SBD,MR-MO,93,Raw,1990,AL,90.65,227.5,240,-250,240,167.5,-180,-180,167.5,235,250,-275,250,657.5,,
3,Gordon Bash,M,SBD,MR-MO,93,Raw,1993,MD,83.1,225,232.5,-240,232.5,150,-162.5,-162.5,150,257.5,265,-275,265,647.5,,
4,Rob Patterson,M,SBD,MR-MO,93,Raw,1974,GA,90.43,-207.5,217.5,232.5,232.5,137.5,145,152.5,152.5,217.5,230,240,240,625,,
5,David LeRoy,M,SBD,MR-MO,93,Raw,1990,FL,84.77,132.5,202.5,215,215,120,-125,125,125,262.5,272.5,-282.5,272.5,612.5,,
6,Brad Dunn,M,SBD,MR-MO,93,Raw,1987,TN,88.91,-175,-175,175,175,120,122.5,-130,122.5,175,192.5,-207.5,192.5,490,,
7,Ryan Kilfoyle,M,SBD,MR-MO,93,Raw,1989,TX,83.56,-145,145,165,165,110,-120,120,120,180,197.5,-220,197.5,482.5,,
8,William Knibbs,M,SBD,MR-MO,93,Raw,1982,FL,92.66,132.5,-142.5,142.5,142.5,112.5,117.5,122.5,122.5,132.5,137.5,145,145,410,,
1,Varron Reed,M,SBD,MR-MO,105,Raw,1993,MD,101.64,265,282.5,290,290,165,175,180,180,275,290,-295,290,760,,
2,William Lavelle,M,SBD,MR-MO,105,Raw,1995,WA,103.2,195,210,215,215,140,145,-147.5,145,245,262.5,-272.5,262.5,622.5,,
1,Tim Brockett,M,SBD,MR-MO,120+,Raw,1984,FL,138.22,195,205,210,210,130,137.5,147.5,147.5,217.5,230,242.5,242.5,600,,
1,Jordon Hoffman,M,SBD,MR-T1,83,Raw,2006,NC,80.2,175,185,195,195,102.5,107.5,115,115,185,197.5,210,210,520,,
1,Jaidon Hoffman,M,SBD,MR-T2,74,Raw,2004,NC,70.58,175,185,-195,185,105,112.5,120,120,190,200,215,215,520,,
1,Juan Fernandez,M,SBD,MW-MO,105,Wraps,1984,FL,99.35,-175,175,192.5,192.5,-132.5,155,162.5,162.5,172.5,212.5,225,225,580,,
DQ,Helen Hankerson,F,BD,FR-MO,76,Raw,1953,FL,73.79,,,,,102.5,-110,-115,102.5,-137.5,-137.5,,,,,
1,Ken England,M,BD,MR-M1,93,Raw,1979,FL,92.49,,,,,92.5,97.5,102.5,102.5,167.5,180,190,190,292.5,,
1,Adam Gaudette,M,BD,MR-M1,120,Raw,1978,CT,117.79,,,,,95,102.5,-107.5,102.5,192.5,197.5,-200,197.5,300,,
1,Leland Blanchard,M,BD,MR-M2,105,Raw,1971,VA,98.64,,,,,110,140,-147.5,140,145,160,172.5,172.5,312.5,,
1,Ted Stewart,M,BD,MR-M3,120+,Raw,1956,WY,124.29,,,,,95,105,110,110,182.5,195,,195,305,,
1,Bob Evans #1,M,BD,MR-M4,105,Raw,1947,FL,103.07,,,,,102.5,115,-122.5,115,175,192.5,200,200,315,,
1,Craig Jenkins,M,BD,MR-MO,93,Raw,1990,AL,90.65,,,,,167.5,-180,-180,167.5,235,250,-275,250,417.5,,
1,Tim Brockett,M,BD,MR-MO,120+,Raw,1984,FL,138.22,,,,,130,137.5,147.5,147.5,217.5,230,242.5,242.5,390,,
