Division,WeightClassKg,Place,Name,Team,BodyweightKg,Best3SquatKg,Best3BenchKg,Best3DeadliftKg,TotalKg,Equipment,Event,Sex,BirthDate
Boys,51.71,1,Zaiden Olvera,Dickinson,51.35,147.42,97.52,154.22,399.16,Unlimited,SBD,M,
Boys,51.71,2,Grayson Morris,Clute Brazoswood,48.85,120.2,77.11,138.35,335.66,Unlimited,SBD,M,
Boys,51.71,3,Talen Perry-Vandruten,Clute Brazoswood,51.62,106.59,72.57,95.25,274.42,Unlimited,SBD,M,
Boys,55.79,1,Seven Petteway,Clute Brazoswood,55.79,140.61,102.06,145.15,387.82,Unlimited,SBD,M,
Boys,55.79,2,Israel Reyes,Dickinson,55.34,147.42,74.84,158.76,381.02,Unlimited,SBD,M,
Boys,55.79,3,Blayne Means,Clute Brazoswood,55.79,129.27,74.84,131.54,335.66,Unlimited,SBD,M,
Boys,59.87,1,Phillip Yoakum,Dickinson,58.51,183.7,88.45,158.76,430.91,Unlimited,SBD,M,
Boys,59.87,2,Reynaldo Moreno,Clute Brazoswood,59.78,167.83,102.06,156.49,426.38,Unlimited,SBD,M,
Boys,67.13,1,Tri Mai,Dickinson,67.13,226.8,113.4,195.04,535.24,Unlimited,SBD,M,
Boys,67.13,2,Keenan Lawrence,La Porte,67.13,183.7,124.74,219.99,528.44,Unlimited,SBD,M,
Boys,67.13,3,Mathew O'Donnell,Clute Brazoswood,67.13,172.37,97.52,170.1,439.98,Unlimited,SBD,M,
Boys,67.13,4,Rylan Earp,Clute Brazoswood,63.96,151.95,88.45,151.95,392.36,Unlimited,SBD,M,
Boys,74.84,1,Aaron Arratia,Dickinson,72.71,276.69,147.42,238.14,662.24,Unlimited,SBD,M,
Boys,74.84,2,Tristen Munoz,Dickinson,74.84,215.46,124.74,226.8,566.99,Unlimited,SBD,M,
Boys,74.84,3,Jesus Ramirez,Clute Brazoswood,69.4,199.58,138.35,204.12,542.04,Unlimited,SBD,M,
Boys,74.84,4,Ernesto Trevino,Dickinson,73.39,215.46,129.27,192.78,537.51,Unlimited,SBD,M,
Boys,74.84,5,Kevin Rojas de Ordonez,La Porte,74.57,174.63,117.93,183.7,476.27,Unlimited,SBD,M,
Boys,82.1,1,Mason Donovan,Clute Brazoswood,80.78,190.51,129.27,161.03,480.81,Unlimited,SBD,M,
Boys,82.1,2,David Rodriguez,Clute Brazoswood,80.74,172.37,108.86,154.22,435.45,Unlimited,SBD,M,
Boys,89.81,1,Camryn Jones,Dickinson,89.81,272.16,151.95,219.99,644.1,Unlimited,SBD,M,
Boys,89.81,2,Brayden Buckalew,Clute Brazoswood,88.04,226.8,111.13,215.46,553.38,Unlimited,SBD,M,
Boys,89.81,3,Jascyn Mason,Dickinson,86.86,199.58,102.06,204.12,505.76,Unlimited,SBD,M,
Boys,89.81,4,Tayton Self,La Porte,89.81,174.63,120.2,204.12,498.95,Unlimited,SBD,M,
Boys,89.81,5,Tommy Sanchez,La Porte,89.72,165.56,111.13,206.38,483.08,Unlimited,SBD,M,
Boys,89.81,6,Luis Martinez Arias,Clute Brazoswood,86.68,156.49,92.99,174.63,424.11,Unlimited,SBD,M,
Boys,89.81,DQ,Gavin Phillips,Clute Brazoswood,89.22,,,,,Unlimited,SBD,M,
Boys,99.79,1,Jay Reroma,Dickinson,99.79,278.96,183.7,238.14,700.8,Unlimited,SBD,M,
Boys,99.79,2,Roy Ramirez,Clute Brazoswood,98.88,231.33,142.88,240.4,614.62,Unlimited,SBD,M,
Boys,99.79,NS,Bransen Shalney,La Porte,,,,,,Unlimited,SBD,M,
Boys,109.77,1,Maxx Vazquez,Dickinson,109.77,317.51,204.12,213.19,734.82,Unlimited,SBD,M,
Boys,109.77,2,Adolfo Cruz,Dickinson,106.5,272.16,197.31,231.33,700.8,Unlimited,SBD,M,
Boys,109.77,3,Nestor Nieto,Clute Brazoswood,109.77,240.4,145.15,199.58,585.13,Unlimited,SBD,M,
Boys,109.77,4,David Campos,La Porte,106.05,204.12,145.15,206.38,555.65,Unlimited,SBD,M,
Boys,124.74,1,Leo Mendoza,Clute Brazoswood,118.61,249.48,149.69,217.72,616.89,Unlimited,SBD,M,
Boys,124.74,2,Rylan Smith-Yonts,Clute Brazoswood,115.67,247.21,120.2,217.72,585.13,Unlimited,SBD,M,
Boys,124.74,3,Icsom Jones,La Porte,111.08,165.56,106.59,174.63,446.79,Unlimited,SBD,M,
Boys,124.74,NS,Teddy Charlery,La Porte,,,,,,Unlimited,SBD,M,
Boys,124.74,DQ,Landon Guzman,La Porte,123.33,226.8,140.61,,,Unlimited,SBD,M,
Boys,139.71,NS,Luke Mora,La Porte,,,,,,Unlimited,SBD,M,
Boys,139.71+,1,Jonthan Martinez,Dickinson,140.61,272.16,142.88,204.12,619.15,Unlimited,SBD,M,
