Division,WeightClassKg,Place,Name,Team,BodyweightKg,Best3SquatKg,Best3BenchKg,Best3DeadliftKg,TotalKg,Equipment,Event,Sex,BirthDate
Boys,51.71,1,Landon Chesney,Northwest Eaton,50.62,158.76,97.52,151.95,408.23,Unlimited,SBD,M,
Boys,51.71,2,Zailyn Butler,Sherman,51.62,158.76,86.18,154.22,399.16,Unlimited,SBD,M,
Boys,51.71,3,Marquis Jemison,Saginaw,51.71,129.27,72.57,138.35,340.19,Unlimited,SBD,M,
Boys,51.71,4,Asher Apodaca,Little Elm,51.71,129.27,70.31,133.81,333.39,Unlimited,SBD,M,
Boys,51.71,5,Subha Karki,Keller Central,51.07,120.2,72.57,129.27,322.05,Unlimited,SBD,M,
Boys,51.71,6,Marcelo Patino,Frisco Emerson,50.89,129.27,61.23,122.47,312.98,Unlimited,SBD,M,
Boys,51.71,7,Elijah Key,Northwest Nelson,48.99,117.93,63.5,113.4,294.84,Unlimited,SBD,M,
Boys,51.71,8,Abel Cruz,Melissa,47.45,120.2,54.43,113.4,288.03,Unlimited,SBD,M,
Boys,51.71,9,Korbin Pantoja,Azle,50.71,117.93,58.97,111.13,288.03,Unlimited,SBD,M,
Boys,51.71,10,Ian Yang,Prosper,49.62,113.4,61.23,111.13,285.76,Unlimited,SBD,M,
Boys,51.71,11,David Limo,Justin Northwest,48.81,102.06,56.7,113.4,272.16,Unlimited,SBD,M,
Boys,51.71,DQ,Evan Ewton,Denison,49.53,92.99,61.23,,,Unlimited,SBD,M,
Boys,55.79,1,Trey Shirey,Prosper,54.61,195.04,124.74,197.31,517.1,Unlimited,SBD,M,
Boys,55.79,2,Braeden DeHoyos,Fort Worth Boswell,54.88,145.15,95.25,147.42,387.82,Unlimited,SBD,M,
Boys,55.79,3,Cooper Deranger,Argyle,54.7,138.35,74.84,167.83,381.02,Unlimited,SBD,M,
Boys,55.79,4,Jonathan Barajas,Saginaw,55.61,133.81,77.11,165.56,376.48,Unlimited,SBD,M,
Boys,55.79,5,Gabriel Morse,Keller Central,55.61,161.03,83.91,127.01,371.95,Unlimited,SBD,M,
Boys,55.79,6,Dylan Childs,Sherman,55.16,142.88,83.91,133.81,360.61,Unlimited,SBD,M,
Boys,55.79,7,Anthony York,Azle,55.79,129.27,86.18,140.61,356.07,Unlimited,SBD,M,
Boys,55.79,8,Seth Gallardo,Melissa,54.88,131.54,92.99,120.2,344.73,Unlimited,SBD,M,
Boys,55.79,9,Connor McWilliams,Keller Timber Creek,54.79,124.74,65.77,142.88,333.39,Unlimited,SBD,M,
Boys,55.79,10,Thomas Cole Langham,Keller,54.34,106.59,92.99,122.47,322.05,Unlimited,SBD,M,
Boys,55.79,11,Caleb Jordan,Northwest Nelson,55.79,120.2,65.77,127.01,312.98,Unlimited,SBD,M,
Boys,55.79,12,Aiden Day,Melissa,54.98,92.99,65.77,120.2,278.96,Unlimited,SBD,M,
Boys,59.87,1,Alan Hard,Azle,59.24,197.31,120.2,192.78,510.29,Unlimited,SBD,M,
Boys,59.87,2,Jordan Brown,Keller Central,59.87,197.31,99.79,176.9,474,Unlimited,SBD,M,
Boys,59.87,3,Alan Jaramillo,Sherman,59.87,199.58,106.59,167.83,474,Unlimited,SBD,M,
Boys,59.87,4,Jeremiah Dunn,Prosper,58.51,183.7,104.33,181.44,469.47,Unlimited,SBD,M,
Boys,59.87,5,Jesus Mojica,Northwest Eaton,59.87,183.7,92.99,179.17,455.86,Unlimited,SBD,M,
Boys,59.87,6,Anthony Rosales,Princeton,59.87,183.7,92.99,176.9,453.59,Unlimited,SBD,M,
Boys,59.87,7,Aidan Gray,Lewisville Marcus,58.88,163.29,97.52,167.83,428.64,Unlimited,SBD,M,
Boys,59.87,8,Ayush Mitra,Frisco Lebanon Trail,59.51,151.95,104.33,163.29,419.57,Unlimited,SBD,M,
Boys,59.87,9,Matthew Evans,Lucas Lovejoy,59.42,142.88,92.99,156.49,392.36,Unlimited,SBD,M,
Boys,59.87,DQ,Peyton Hulett,Prosper,59.78,,,,,Unlimited,SBD,M,
Boys,59.87,DQ,Gabriel Rangel,Sherman,58.33,190.51,,,,Unlimited,SBD,M,
Boys,59.87,DQ,Tristyn Keaton,Azle,58.51,174.63,102.06,,,Unlimited,SBD,M,
Boys,67.13,1,Emmanuel Martinez,Princeton,66.22,219.99,170.1,219.99,610.08,Unlimited,SBD,M,
Boys,67.13,2,Ethan Nguyen,Mansfield Summit,66.68,210.92,111.13,260.82,582.87,Unlimited,SBD,M,
Boys,67.13,3,Michael Lopez,Princeton,65.5,226.8,133.81,204.12,564.72,Unlimited,SBD,M,
Boys,67.13,4,Jaxx Marsden,Keller Timber Creek,66.5,219.99,147.42,195.04,562.45,Unlimited,SBD,M,
Boys,67.13,5,Angelo Yeck,Prosper,65.05,195.04,156.49,183.7,535.24,Unlimited,SBD,M,
Boys,67.13,6,Cayden Lawson,Azle,65.14,188.24,113.4,224.53,526.17,Unlimited,SBD,M,
Boys,67.13,7,Nathan Haines,Prosper,67.13,195.04,133.81,195.04,523.9,Unlimited,SBD,M,
Boys,67.13,8,Ace Akins,Keller Timber Creek,66.13,217.72,120.2,181.44,519.36,Unlimited,SBD,M,
Boys,67.13,9,Edgar Valles,Azle,66.13,174.63,127.01,192.78,494.42,Unlimited,SBD,M,
Boys,67.13,10,Kendreich Scheving,Keller Fossil Ridge,65.5,197.31,129.27,158.76,485.34,Unlimited,SBD,M,
Boys,67.13,DQ,Noah Heath,Mansfield,66.59,,,,,Unlimited,SBD,M,
Boys,67.13,DQ,Zander Paton,Melissa,63.05,,,,,Unlimited,SBD,M,
Boys,74.84,1,Kaden Chase,Northwest Eaton,73.66,263.08,154.22,242.67,659.98,Unlimited,SBD,M,
Boys,74.84,2,Ethan Hunt,Denison,72.94,238.14,154.22,249.48,641.83,Unlimited,SBD,M,
Boys,74.84,3,Leo Anguiano,Prosper,69.76,226.8,170.1,235.87,632.76,Unlimited,SBD,M,
Boys,74.84,4,Daniel Reynolds,Keller,74.12,265.35,154.22,206.38,625.96,Unlimited,SBD,M,
Boys,74.84,5,Nick Luangrath,Keller Central,72.94,249.48,154.22,201.85,605.55,Unlimited,SBD,M,
Boys,74.84,6,Christopher Matias,Mansfield Lake Ridge,73.66,219.99,151.95,231.33,603.28,Unlimited,SBD,M,
Boys,74.84,7,Alex Pena,Sherman,73.66,235.87,147.42,219.99,603.28,Unlimited,SBD,M,
Boys,74.84,8,Zayd Allan,Mansfield Lake Ridge,74.12,219.99,147.42,226.8,594.21,Unlimited,SBD,M,
Boys,74.84,9,Nathan Giddons,Keller Timber Creek,73.75,238.14,140.61,210.92,589.67,Unlimited,SBD,M,
Boys,74.84,10,Austin Stutts,Frisco Wakeland,74.03,213.19,147.42,229.06,589.67,Unlimited,SBD,M,
Boys,74.84,DQ,Logan Deal,Keller,74.21,,,,,Unlimited,SBD,M,
Boys,74.84,DQ,Besnik Hysenaj,Little Elm,73.48,,,,,Unlimited,SBD,M,
Boys,82.1,1,Michael Griger,Denison,81.28,254.01,176.9,272.16,703.07,Unlimited,SBD,M,
Boys,82.1,2,Bailey Ohrn,Frisco Emerson,78.83,256.28,190.51,247.21,694,Unlimited,SBD,M,
Boys,82.1,3,Tyler Ulrich,Azle,81.01,249.48,165.56,249.48,664.51,Unlimited,SBD,M,
Boys,82.1,4,Colby Ray Short,Sherman,79.11,251.74,174.63,229.06,655.44,Unlimited,SBD,M,
Boys,82.1,5,Christian Perez,Keller Central,81.56,242.67,158.76,251.74,653.17,Unlimited,SBD,M,
Boys,82.1,6,Cash Moore,Azle,81.56,244.94,181.44,226.8,653.17,Unlimited,SBD,M,
Boys,82.1,7,Harvil Fogwe,Mansfield Lake Ridge,80.29,249.48,142.88,238.14,630.49,Unlimited,SBD,M,
Boys,82.1,8,Will Ngyuen,Princeton,80.74,238.14,167.83,224.53,630.49,Unlimited,SBD,M,
Boys,82.1,9,Jose Rosas,Fort Worth Polytechnic,80.83,242.67,142.88,238.14,623.69,Unlimited,SBD,M,
Boys,82.1,10,Saheed Durodoye,Justin Northwest,80.92,249.48,147.42,224.53,621.42,Unlimited,SBD,M,
Boys,82.1,11,Luis Huerta,Keller,80.29,201.85,156.49,254.01,612.35,Unlimited,SBD,M,
Boys,82.1,12,Kaleb Rothman,Keller Central,81.28,256.28,151.95,204.12,612.35,Unlimited,SBD,M,
Boys,82.1,13,Isaac Maldonado,Keller Central,82.1,244.94,147.42,206.38,598.74,Unlimited,SBD,M,
Boys,82.1,14,Cooper Stevens,Prosper,77.02,233.6,156.49,206.38,596.47,Unlimited,SBD,M,
Boys,89.81,1,Aaron Gomez,Argyle,88.72,281.23,238.14,258.55,777.91,Unlimited,SBD,M,
Boys,89.81,2,Devon Jeffries,Denison,88.09,294.84,176.9,254.01,725.75,Unlimited,SBD,M,
Boys,89.81,3,Luke Susman,Lucas Lovejoy,87.72,265.35,174.63,235.87,675.85,Unlimited,SBD,M,
Boys,89.81,4,Gabe DeKok,Keller,88.81,251.74,170.1,226.8,648.64,Unlimited,SBD,M,
Boys,89.81,5,Ben Susman,Lucas Lovejoy,87.36,240.4,165.56,229.06,635.03,Unlimited,SBD,M,
Boys,89.81,6,Joe Gionfriddo,Sherman,88.18,229.06,170.1,235.87,635.03,Unlimited,SBD,M,
Boys,89.81,7,Daniel Tyutyunnik,Princeton,89.09,235.87,142.88,256.28,635.03,Unlimited,SBD,M,
Boys,89.81,8,Christian Dehoyas,Azle,87.91,233.6,138.35,238.14,610.08,Unlimited,SBD,M,
Boys,89.81,9,Xavier Babb,Sherman,89.81,235.87,156.49,206.38,598.74,Unlimited,SBD,M,
Boys,89.81,10,Austin Crawley,Denison,87.45,215.46,158.76,199.58,573.79,Unlimited,SBD,M,
Boys,89.81,11,Jaxon Watjen,Princeton,84.01,222.26,115.67,229.06,566.99,Unlimited,SBD,M,
Boys,89.81,DQ,Jonathan Walters,Princeton,87,217.72,138.35,,,Unlimited,SBD,M,
Boys,99.79,1,Case Moore,Azle,96.89,281.23,197.31,238.14,716.68,Unlimited,SBD,M,
Boys,99.79,2,Abram Ramirez,Sherman,96.34,256.28,183.7,244.94,684.92,Unlimited,SBD,M,
Boys,99.79,3,Gavin Prince,Lucas Lovejoy,93.62,242.67,183.7,231.33,657.71,Unlimited,SBD,M,
Boys,99.79,4,Ty Smith,Lucas Lovejoy,96.43,251.74,181.44,224.53,657.71,Unlimited,SBD,M,
Boys,99.79,5,Angel Ramirez,Sherman,97.07,244.94,165.56,222.26,632.76,Unlimited,SBD,M,
Boys,99.79,6,Zachary Furnas,Northwest Nelson,99.79,213.19,174.63,229.06,616.89,Unlimited,SBD,M,
Boys,99.79,7,Leavy Owens,Azle,91.08,240.4,149.69,215.46,605.55,Unlimited,SBD,M,
Boys,99.79,8,Malik McCoy,Saginaw,92.44,222.26,142.88,238.14,603.28,Unlimited,SBD,M,
Boys,99.79,9,Luke Smith,Fort Worth Boswell,98.25,204.12,142.88,251.74,598.74,Unlimited,SBD,M,
Boys,99.79,DQ,Noah Read,Keller,98.52,226.8,,,,Unlimited,SBD,M,
Boys,99.79,DQ,Jaime Montiel,Keller Fossil Ridge,98.79,272.16,136.08,,,Unlimited,SBD,M,
Boys,99.79,DQ,Danny Lopez,Sherman,98.52,,,,,Unlimited,SBD,M,
Boys,109.77,1,Josh Turner,Denison,101.33,274.42,183.7,229.06,687.19,Unlimited,SBD,M,
Boys,109.77,2,John Hurt,Argyle,105.69,272.16,170.1,240.4,682.66,Unlimited,SBD,M,
Boys,109.77,3,Matthew Ehsan,McKinney,108.32,249.48,136.08,272.16,657.71,Unlimited,SBD,M,
Boys,109.77,4,Robert McMillian,Everman,109.77,260.82,167.83,226.8,655.44,Unlimited,SBD,M,
Boys,109.77,5,Kamden Dyess,Frisco Heritage,107.41,249.48,172.37,215.46,637.3,Unlimited,SBD,M,
Boys,109.77,6,Hans Randall,Prosper Walnut Grove,106.87,251.74,158.76,224.53,635.03,Unlimited,SBD,M,
Boys,109.77,7,Redd Sagers,Northwest Eaton,108.95,233.6,165.56,226.8,625.96,Unlimited,SBD,M,
Boys,109.77,8,Thor Johansson,Argyle,107.86,238.14,147.42,238.14,623.69,Unlimited,SBD,M,
Boys,109.77,9,Everett Hunt,Argyle,106.78,238.14,154.22,224.53,616.89,Unlimited,SBD,M,
Boys,109.77,10,Yaseen Berry,McKinney North,109.77,222.26,158.76,231.33,612.35,Unlimited,SBD,M,
Boys,109.77,DQ,Tim Kelly,Mansfield,106.41,276.69,,,,Unlimited,SBD,M,
Boys,109.77,DQ,Nick Garza,Little Elm,103.24,240.4,188.24,,,Unlimited,SBD,M,
Boys,109.77,DQ,Nate Kumler,Sherman,109.41,,,,,Unlimited,SBD,M,
Boys,109.77,DQ,Kaden Sabonis,Prosper Rock Hill,109.77,222.26,,,,Unlimited,SBD,M,
Boys,124.74,1,Cooper Duce,Denison,116.12,272.16,204.12,256.28,732.55,Unlimited,SBD,M,
Boys,124.74,2,Jake Brown,Melissa,119.02,288.03,179.17,249.48,716.68,Unlimited,SBD,M,
Boys,124.74,3,Dc Thompson,North Crowley,114.21,276.69,174.63,263.08,714.41,Unlimited,SBD,M,
Boys,124.74,4,Matthew Bryant,Lewisville Marcus,119.66,256.28,183.7,249.48,689.46,Unlimited,SBD,M,
Boys,124.74,5,Ruben Ramirez,Fort Worth Boswell,112.49,267.62,174.63,226.8,669.05,Unlimited,SBD,M,
Boys,124.74,6,Caleb Cox,Denison,111.67,274.42,176.9,215.46,666.78,Unlimited,SBD,M,
Boys,124.74,7,Jake Johnson,Prosper,122.47,226.8,185.97,233.6,646.37,Unlimited,SBD,M,
Boys,124.74,8,Caleb Akins,Denison,117.21,238.14,183.7,201.85,623.69,Unlimited,SBD,M,
Boys,124.74,9,Amjad Khazem,Frisco Heritage,122.2,269.89,140.61,206.38,616.89,Unlimited,SBD,M,
Boys,124.74,10,Jayden Smith,Northwest Nelson,124.74,238.14,142.88,233.6,614.62,Unlimited,SBD,M,
Boys,124.74,11,Luke Williams,Keller,116.94,247.21,156.49,208.65,612.35,Unlimited,SBD,M,
Boys,124.74,DQ,Wilmer Reyes,White Settlement Brewer,122.56,254.01,151.95,,,Unlimited,SBD,M,
Boys,124.74,DQ,Hunter Bartram,Argyle,111.13,,,,,Unlimited,SBD,M,
Boys,139.71,1,Nathan Orrick,Denison,137.44,272.16,215.46,249.48,737.09,Unlimited,SBD,M,
Boys,139.71,2,Tristan Gable,Northwest Eaton,125.46,276.69,181.44,267.62,725.75,Unlimited,SBD,M,
Boys,139.71,3,Nathanael Cordova,Fort Worth Boswell,129.55,272.16,151.95,278.96,703.07,Unlimited,SBD,M,
Boys,139.71,4,Tayhios Page,Everman,135.17,281.23,183.7,215.46,680.39,Unlimited,SBD,M,
Boys,139.71,5,Nathan Woods,Denison,131.27,276.69,183.7,215.46,675.85,Unlimited,SBD,M,
Boys,139.71,6,Sean Stover,Prosper,125.19,251.74,176.9,235.87,664.51,Unlimited,SBD,M,
Boys,139.71,7,Jace Bardwell,Lewisville Marcus,136.62,265.35,170.1,226.8,662.24,Unlimited,SBD,M,
Boys,139.71,8,Sydney Ross #1,Denton Braswell,139.71,272.16,181.44,190.51,644.1,Unlimited,SBD,M,
Boys,139.71,9,Giovanni Warner,Crowley,134.72,235.87,167.83,222.26,625.96,Unlimited,SBD,M,
Boys,139.71,10,Chansyn Bowen,Argyle,131.63,240.4,133.81,238.14,612.35,Unlimited,SBD,M,
Boys,139.71,11,Charlie Sanders,White Settlement Brewer,131.63,201.85,170.1,204.12,576.06,Unlimited,SBD,M,
Boys,139.71+,1,Owen Hollenbeck,Melissa,156.49,317.51,204.12,244.94,766.57,Unlimited,SBD,M,
Boys,139.71+,2,Xzaviah Milton,Saginaw,158.3,283.5,206.38,204.12,694,Unlimited,SBD,M,
Boys,139.71+,3,Noah Roten,Denison,139.89,272.16,199.58,192.78,664.51,Unlimited,SBD,M,
Boys,139.71+,4,Levi Ullah,Sherman,149.05,244.94,204.12,204.12,653.17,Unlimited,SBD,M,
Boys,139.71+,5,Ian Davidson,Keller Central,140.61,244.94,197.31,188.24,630.49,Unlimited,SBD,M,
Boys,139.71+,6,Christian Chukura,Denton Braswell,149.32,219.99,170.1,219.99,610.08,Unlimited,SBD,M,
Boys,139.71+,7,Marco Herrera,Mansfield Timberview,146.69,249.48,151.95,197.31,598.74,Unlimited,SBD,M,
Boys,139.71+,8,Blake Smith,Keller Timber Creek,157.4,201.85,165.56,201.85,569.26,Unlimited,SBD,M,
Boys,139.71+,9,Hayden Robertson,Fort Worth Boswell,142.16,206.38,140.61,188.24,535.24,Unlimited,SBD,M,
Boys,139.71+,10,Adam May,Azle,142.07,181.44,151.95,199.58,532.97,Unlimited,SBD,M,
Boys,139.71+,11,Dominic Wilson,Justin Northwest,153.4,226.8,113.4,188.24,528.44,Unlimited,SBD,M,
Boys,139.71+,DQ,Nick Jiles,Crowley,140.8,,,,,Unlimited,SBD,M,
