Division,WeightClassKg,Place,Name,Team,BodyweightKg,Best3SquatKg,Best3BenchKg,Best3DeadliftKg,TotalKg,Equipment,Event,Sex,BirthDate
Boys,51.71,1,Karsen Reyes,Kenedy,49.71,190.51,106.59,165.56,462.66,Unlimited,SBD,M,
Boys,51.71,2,Cesar Vazquez,Nixon Smiley,51.71,161.03,99.79,145.15,405.97,Unlimited,SBD,M,
Boys,51.71,3,Jack Zarosky,Floresville,51.71,92.99,56.7,129.27,278.96,Unlimited,SBD,M,
Boys,55.79,1,Ryder Hartsfield,Kenedy,55.07,158.76,102.06,145.15,405.97,Unlimited,SBD,M,
Boys,55.79,2,Lee Cruz,Floresville,55.79,149.69,104.33,138.35,392.36,Unlimited,SBD,M,
Boys,55.79,3,Andrew Meza,Nixon Smiley,55.57,142.88,99.79,142.88,385.55,Unlimited,SBD,M,
Boys,55.79,4,Eduardo Betancourt,Nixon Smiley,55.79,142.88,79.38,158.76,381.02,Unlimited,SBD,M,
Boys,55.79,5,Khali Jantes,Nixon Smiley,55.79,136.08,90.72,145.15,371.95,Unlimited,SBD,M,
Boys,55.79,DQ,Rayden Reyna,Kenedy,55.11,188.24,,,,Unlimited,SBD,M,
Boys,55.79,DQ,Paiton Cantu,Poth,55.79,142.88,83.91,,,Unlimited,SBD,M,
Boys,59.87,1,David Fraga,Kenedy,59.1,188.24,120.2,183.7,492.15,Unlimited,SBD,M,
Boys,59.87,2,Harley Anderson,Floresville,59.87,149.69,92.99,161.03,403.7,Unlimited,SBD,M,
Boys,59.87,3,Kim Yates,George West,59.87,142.88,81.65,129.27,353.8,Unlimited,SBD,M,
Boys,67.13,1,Korbin Benes,Geronimo Navarro,65.95,176.9,115.67,210.92,503.49,Unlimited,SBD,M,
Boys,67.13,2,Mason Acevedo,Poteet,67.13,192.78,102.06,195.04,489.88,Unlimited,SBD,M,
Boys,67.13,3,Dylan Trotti,Geronimo Navarro,66.81,179.17,113.4,176.9,469.47,Unlimited,SBD,M,
Boys,67.13,4,Jose Cervantes,Kenedy,66.77,165.56,102.06,181.44,449.06,Unlimited,SBD,M,
Boys,67.13,5,Eric Rodriguez,Nixon Smiley,66.81,161.03,113.4,167.83,442.25,Unlimited,SBD,M,
Boys,67.13,6,Josh Martinez,Floresville,67.13,167.83,97.52,174.63,439.98,Unlimited,SBD,M,
Boys,67.13,7,Ryan Bailey,Karnes City,62.05,176.9,97.52,158.76,433.18,Unlimited,SBD,M,
Boys,67.13,8,Pedro Serna,Karnes City,62.41,142.88,81.65,183.7,408.23,Unlimited,SBD,M,
Boys,67.13,9,Trinidad Aguirre,Geronimo Navarro,65.18,140.61,95.25,170.1,405.97,Unlimited,SBD,M,
Boys,67.13,10,Colton Garza,Poth,67.13,156.49,81.65,156.49,394.63,Unlimited,SBD,M,
Boys,67.13,11,Jose Mendoza,Runge,67.13,142.88,72.57,172.37,387.82,Unlimited,SBD,M,
Boys,67.13,12,Jett Martinez,Floresville,64.64,133.81,86.18,142.88,362.87,Unlimited,SBD,M,
Boys,67.13,13,Colbin Gutierrez,Runge,65.63,133.81,81.65,142.88,358.34,Unlimited,SBD,M,
Boys,67.13,14,Michael Dodson,Poteet,67.13,113.4,77.11,151.95,342.46,Unlimited,SBD,M,
Boys,67.13,15,Julian Perales,Karnes City,65.09,115.67,90.72,131.54,337.93,Unlimited,SBD,M,
Boys,67.13,16,Trey Miller,Poth,64.82,120.2,70.31,131.54,322.05,Unlimited,SBD,M,
Boys,67.13,17,Nicholas Salinas,Karnes City,66.27,120.2,61.23,133.81,315.25,Unlimited,SBD,M,
Boys,67.13,18,Ryan Vasquez,George West,67.04,95.25,102.06,111.13,308.44,Unlimited,SBD,M,
Boys,67.13,19,Gabriel Barnoski,Karnes City,62.55,72.57,61.23,111.13,244.94,Unlimited,SBD,M,
Boys,67.13,DQ,Jared Dedear,Kenedy,66.09,170.1,,,,Unlimited,SBD,M,
Boys,67.13,DQ,Alexis Santos,Stockdale,66.81,149.69,,,,Unlimited,SBD,M,
Boys,74.84,1,AJ Vasquez,Floresville,72.76,226.8,142.88,215.46,585.13,Unlimited,SBD,M,
Boys,74.84,2,Adolfo Vazquez,Nixon Smiley,74.84,226.8,136.08,210.92,573.79,Unlimited,SBD,M,
Boys,74.84,3,Miguel Valerio,Nixon Smiley,74.84,195.04,136.08,183.7,514.83,Unlimited,SBD,M,
Boys,74.84,4,Logen Balcar,Floresville,74.84,192.78,124.74,190.51,508.02,Unlimited,SBD,M,
Boys,74.84,5,Israel Soto,Karnes City,74.84,201.85,108.86,183.7,494.42,Unlimited,SBD,M,
Boys,74.84,6,Ricky Ayala,Stockdale,69.9,174.63,113.4,201.85,489.88,Unlimited,SBD,M,
Boys,74.84,7,John Albert Cisneros,George West,70.4,179.17,122.47,185.97,487.61,Unlimited,SBD,M,
Boys,74.84,8,Nathaniel Serna,Kenedy,68.08,183.7,127.01,174.63,485.34,Unlimited,SBD,M,
Boys,74.84,9,Louis Stark,Floresville,71.4,174.63,122.47,172.37,469.47,Unlimited,SBD,M,
Boys,74.84,10,Camden Derricoatte,Stockdale,68.63,174.63,92.99,176.9,444.52,Unlimited,SBD,M,
Boys,74.84,11,Cj Rucker,Stockdale,70.99,174.63,102.06,165.56,442.25,Unlimited,SBD,M,
Boys,74.84,12,Anthony Munoz,Poteet,69.4,158.76,113.4,163.29,435.45,Unlimited,SBD,M,
Boys,74.84,13,Evan Castro,Runge,71.76,154.22,97.52,163.29,415.04,Unlimited,SBD,M,
Boys,74.84,14,Justice Cuellar,Karnes City,74.57,161.03,86.18,165.56,412.77,Unlimited,SBD,M,
Boys,74.84,15,William Alvarez,Poteet,69.4,142.88,97.52,145.15,385.55,Unlimited,SBD,M,
Boys,74.84,16,Bryce Laing,Geronimo Navarro,72.76,133.81,92.99,147.42,374.21,Unlimited,SBD,M,
Boys,74.84,17,Christovin Cisneros,George West,73.66,136.08,72.57,129.27,337.93,Unlimited,SBD,M,
Boys,74.84,18,Wyatt Merritt,Karnes City,74.3,115.67,56.7,97.52,269.89,Unlimited,SBD,M,
Boys,74.84,DQ,Jayden Ibarra,Poteet,73.71,226.8,,,,Unlimited,SBD,M,
Boys,74.84,DQ,Jose Olvera,Nixon Smiley,67.99,226.8,111.13,,,Unlimited,SBD,M,
Boys,82.1,1,Nick Schwarzlose,Geronimo Navarro,81.47,199.58,161.03,210.92,571.53,Unlimited,SBD,M,
Boys,82.1,2,Juan Franco,Stockdale,79.56,217.72,131.54,181.44,530.7,Unlimited,SBD,M,
Boys,82.1,3,Alex Castellano,George West,78.83,183.7,115.67,170.1,469.47,Unlimited,SBD,M,
Boys,82.1,4,Colin Geipel,Geronimo Navarro,79.79,172.37,102.06,195.04,469.47,Unlimited,SBD,M,
Boys,82.1,5,Abel Gonzales,Karnes City,79.2,140.61,65.77,163.29,369.68,Unlimited,SBD,M,
Boys,82.1,6,Scott Oberheide,Pawnee,79.88,88.45,54.43,106.59,249.48,Unlimited,SBD,M,
Boys,82.1,DQ,Syrhian Alaniz,Karnes City,78.02,195.04,113.4,,,Unlimited,SBD,M,
Boys,82.1,DQ,Joel Flores,Stockdale,75.39,129.27,,,,Unlimited,SBD,M,
Boys,89.81,1,Matthew Jarzombeck,Poth,89.45,235.87,158.76,269.89,664.51,Unlimited,SBD,M,
Boys,89.81,2,Omar Morales Navarro,Nixon Smiley,83.46,226.8,142.88,235.87,605.55,Unlimited,SBD,M,
Boys,89.81,3,Gavin Neville,Poth,88.13,226.8,161.03,217.72,605.55,Unlimited,SBD,M,
Boys,89.81,4,Michael Romo,Kenedy,88.77,188.24,131.54,188.24,508.02,Unlimited,SBD,M,
Boys,89.81,5,Gavin Alvear,Karnes City,87.09,204.12,113.4,183.7,501.22,Unlimited,SBD,M,
Boys,89.81,6,Adan Zavala,Nixon Smiley,89.45,195.04,124.74,170.1,489.88,Unlimited,SBD,M,
Boys,89.81,7,Richard Wilson,Kenedy,87.45,195.04,124.74,158.76,478.54,Unlimited,SBD,M,
Boys,89.81,8,Jaden Kotara,Poth,87.09,151.95,99.79,176.9,428.64,Unlimited,SBD,M,
Boys,89.81,9,Lane Black,Geronimo Navarro,89.49,140.61,102.06,170.1,412.77,Unlimited,SBD,M,
Boys,89.81,10,Ethan Engler,Stockdale,89.72,147.42,97.52,145.15,390.09,Unlimited,SBD,M,
Boys,89.81,DQ,Michael Steinke,Karnes City,83.51,163.29,,,,Unlimited,SBD,M,
Boys,99.79,1,Daniel Arellano,Floresville,96.75,265.35,183.7,251.74,700.8,Unlimited,SBD,M,
Boys,99.79,2,Xavier Hernandez,Stockdale,96.84,278.96,131.54,254.01,664.51,Unlimited,SBD,M,
Boys,99.79,3,Jallen Medina,George West,96.34,258.55,147.42,206.38,612.35,Unlimited,SBD,M,
Boys,99.79,4,Wilfred Chapa,Poth,94.62,226.8,154.22,226.8,607.81,Unlimited,SBD,M,
Boys,99.79,5,Ryan Antuna,Poth,96.75,226.8,120.2,190.51,537.51,Unlimited,SBD,M,
Boys,99.79,6,Noah Rosas,Geronimo Navarro,96.66,183.7,111.13,201.85,496.68,Unlimited,SBD,M,
Boys,99.79,7,Jaaren Cano,Kenedy,94.76,195.04,117.93,158.76,471.74,Unlimited,SBD,M,
Boys,99.79,8,Osvaldo Martinez,Karnes City,93.71,154.22,92.99,151.95,399.16,Unlimited,SBD,M,
Boys,99.79,9,Mateo Rodriguez,Karnes City,94.76,117.93,54.43,115.67,288.03,Unlimited,SBD,M,
Boys,99.79,10,Austin Hernandez,Pawnee,91.13,88.45,54.43,106.59,249.48,Unlimited,SBD,M,
Boys,99.79,DQ,Gavino Moreno,Nixon Smiley,98.61,233.6,,,,Unlimited,SBD,M,
Boys,99.79,DQ,Jesus Espino,Nixon Smiley,93.85,249.48,,,,Unlimited,SBD,M,
Boys,99.79,DQ,John Baca,Stockdale,90.08,181.44,,,,Unlimited,SBD,M,
Boys,109.77,1,Daniel Diaz,Three Rivers,101.6,226.8,145.15,224.53,596.47,Unlimited,SBD,M,
Boys,109.77,2,Jesse Fraga,Kenedy,109.41,226.8,156.49,158.76,542.04,Unlimited,SBD,M,
Boys,109.77,3,Brandon Phelps,Geronimo Navarro,108.18,192.78,131.54,179.17,503.49,Unlimited,SBD,M,
Boys,109.77,4,David Cantu,Kenedy,106.96,149.69,124.74,158.76,433.18,Unlimited,SBD,M,
Boys,109.77,5,Ben Flores,Pawnee,102.15,124.74,61.23,127.01,312.98,Unlimited,SBD,M,
Boys,109.77,DQ,Cameron Garcia,Three Rivers,102.69,199.58,161.03,,,Unlimited,SBD,M,
Boys,109.77,DQ,Conner Hajovsky,Stockdale,102.97,165.56,,,,Unlimited,SBD,M,
Boys,124.74,1,Omar Torres,Floresville,113.85,240.4,154.22,251.74,646.37,Unlimited,SBD,M,
Boys,124.74,2,Logan Lopez,Karnes City,119.34,233.6,136.08,210.92,580.6,Unlimited,SBD,M,
Boys,124.74,3,Logan Ramirez,Poth,114.03,215.46,149.69,195.04,560.19,Unlimited,SBD,M,
Boys,124.74,4,Andrew Morin,Three Rivers,122.11,183.7,136.08,183.7,503.49,Unlimited,SBD,M,
Boys,124.74,5,Ryan Martinez,Karnes City,122.61,183.7,102.06,170.1,455.86,Unlimited,SBD,M,
Boys,124.74,DQ,Jathan Alvear,Karnes City,114.21,272.16,174.63,,,Unlimited,SBD,M,
Boys,124.74,DQ,Timothy Barrientes,Floresville,113.85,206.38,92.99,,,Unlimited,SBD,M,
Boys,139.71,1,Exodus Acevedo,Floresville,137.62,267.62,188.24,263.08,718.94,Unlimited,SBD,M,
Boys,139.71,2,Pedro Lopez,Karnes City,136.76,231.33,113.4,217.72,562.45,Unlimited,SBD,M,
Boys,139.71,3,Daisn Pena,Runge,132.4,183.7,90.72,190.51,464.93,Unlimited,SBD,M,
Boys,139.71,4,Darren Hernandez,Karnes City,131,133.81,83.91,172.37,390.09,Unlimited,SBD,M,
Boys,139.71,DQ,Wyatt Smith,George West,133.9,204.12,,,,Unlimited,SBD,M,
Boys,,NS,Davian Zuniga,George West,,,,,,Unlimited,SBD,M,
Boys,,NS,Seay Clark,Karnes City,,,,,,Unlimited,SBD,M,
Boys,,NS,Alec Arguijo,Poteet,,,,,,Unlimited,SBD,M,
Boys,,NS,Dalton Romo,Three Rivers,,,,,,Unlimited,SBD,M,
